{
  "featureName": "sms",
  "afterFeatures": ["commons"],
  "objects": [
    {
      "kind" : "actor",
      "dependency" : "SendSmsActor",
      "name" : "sendSmsActor",
      "protocolType": "sms_service_https"
    },
    {
      "kind": "actor",
      "dependency": "SmsRemindActor",
      "name": "smsRemindActor",
      "userCollectionName": "user_account",
      "userCollectionKey": "userId"
    }
  ],
  "maps": [
    {
      "id": "smsSendMap",
      "steps": [
        {
          "target": "sendSmsActor",
          "handler": "sendSms",
          "wrapper": {
            "in_getNumber": "message/number",
            "in_getMessage": "message/message"
          }
        }
      ],
      "exceptional": [],
      "externalAccess": true
    }
  ]
}